{
    "KPlugin": {
        "Icon": "activities",
        "MimeTypes": [
            "application/octet-stream",
            "inode/directory"
        ],
        "Name": "Link Files to Activities",
        "Name[ca@valencia]": "Enllaçat de fitxers a les activitats",
        "Name[ca]": "Enllaçat de fitxers a les activitats",
        "Name[cs]": "Připojit soubory k aktivitám",
        "Name[da]": "Link filer til aktiviteter",
        "Name[el]": "Σύνδεση αρχείων με δραστηριότητες",
        "Name[en_GB]": "Link Files to Activities",
        "Name[es]": "Enlazar archivos a actividades",
        "Name[et]": "Failide linkimine tegevustega",
        "Name[eu]": "Estekatu fitxategiak jarduerekin",
        "Name[fi]": "Linkitä aktiviteetteihin tiedostoja",
        "Name[fr]": "Associer les fichiers à des activités",
        "Name[gl]": "Ligar ficheiros con actividades",
        "Name[it]": "Collega file alle attività",
        "Name[ko]": "파일과 활동 연결",
        "Name[nl]": "Bestanden koppelen aan activiteiten",
        "Name[nn]": "Lenkja filer til aktivitetar",
        "Name[pt]": "Associar Ficheiros a Actividades",
        "Name[pt_BR]": "Link de arquivos para atividades",
        "Name[ru]": "Связывание файлов с комнатами",
        "Name[sk]": "Prepojiť súbory s Aktivitami",
        "Name[sl]": "Poveži datoteke z aktivnostmi",
        "Name[sv]": "Länkar filer till aktiviteter",
        "Name[uk]": "Пов'язування файлів із просторами дій",
        "Name[x-test]": "xxLink Files to Activitiesxx",
        "Name[zh_CN]": "将文件关联到活动",
        "Name[zh_TW]": "連結檔案至活動",
        "ServiceTypes": [
            "KFileItemAction/Plugin"
        ]
    }
}
